…
We are now ready to load the data\!

## Loading and cleaning up the data

First, we load the raw data and inspect
it.

``` r
Data.raw <- read_xlsx(path = "Data/Data-FMI310.xlsx", sheet = "One stressor -SM")

Data.raw
```

    ## # A tibble: 24 x 9
    ##    `Stressor A` Replicate `Fronds Number` `Growth rate (p~ `Growth inhibit~
    ##           <dbl>     <dbl>           <dbl>            <dbl>            <dbl>
    ##  1          0           1           104.            0.308            -4.10 
    ##  2          0.5         1            98             0.300            -1.46 
    ##  3          1           1            85             0.280             5.41 
    ##  4          1.5         1            70             0.252            14.8  
    ##  5          2           1            42             0.179            39.5  
    ##  6          3           1            20             0.0730           75.3  
    ##  7          4           1            12             0               100    
    ##  8          8           1            10            -0.0260          109.   
    ##  9          0           2            86.5           0.282             4.57 
    ## 10          0.5         2            97             0.299            -0.967
    ## # ... with 14 more rows, and 4 more variables: `Fv/Fm` <dbl>, `PS II
    ## #   inhibition (%)` <dbl>, `ROS formation` <dbl>, `ROS formation (fold
    ## #   increase)` <dbl>
…
Data
```

    ## # A tibble: 24 x 9
    ##    Stressor_A Replicate Fronds_number Growth_rate Growth_inhibiti~ Fv_Fm
    ##         <dbl> <fct>             <int>       <dbl>            <dbl> <dbl>
    ##  1        0   1                   103       0.308           -4.10  0.686
    ##  2        0   2                    86       0.282            4.57  0.693
    ##  3        0   3                    96       0.297           -0.467 0.688
    ##  4        0.5 1                    98       0.300           -1.46  0.708
    ##  5        0.5 2                    97       0.299           -0.967 0.699
    ##  6        0.5 3                    92       0.291            1.59  0.700
    ##  7        1   1                    85       0.280            5.41  0.686
    ##  8        1   2                    89       0.286            3.19  0.685
    ##  9        1   3                    86       0.281            4.85  0.669
    ## 10        1.5 1                    70       0.252           14.8   0.507
    ## # ... with 14 more rows, and 3 more variables: PS_II_inhibition <dbl>,
    ## #   ROS_formation <dbl>, ROS_formation_fold_increase <dbl>
…
